…
###Sex

Number of suicides per 100k for males and females.


```r
sex <- data %>%
  select("year":"suicides.100k.pop", "HDI.for.year":"generation") %>%
  group_by(year, sex) %>%
  summarize(suicides_per_100k = (sum(suicides_no)/sum(population)) * 100000)
sex
```

```
## # A tibble: 64 x 3
## # Groups:   year [32]
##     year sex    suicides_per_100k
##    <int> <fct>              <dbl>
##  1  1985 female              6.33
##  2  1985 male               16.9 
##  3  1986 female              6.45
##  4  1986 male               17.2 
##  5  1987 female              6.26
##  6  1987 male               17.1 
##  7  1988 female              6.13
##  8  1988 male               17.1 
##  9  1989 female              6.57
## 10  1989 male               20.0 
## # ... with 54 more rows
```
…
###Age

Number of suicides per 100k for each age group.


```r
age <- data %>%
  select("year":"suicides.100k.pop", "HDI.for.year":"generation") %>%
  group_by(year, age) %>%
  summarize(suicides_per_100k = (sum(suicides_no)/sum(population))*100000)
age
```

```
## # A tibble: 191 x 3
## # Groups:   year [32]
##     year age         suicides_per_100k
##    <int> <fct>                   <dbl>
##  1  1985 5-14 years              0.494
##  2  1985 15-24 years             9.07 
##  3  1985 25-34 years            12.0  
##  4  1985 35-54 years            14.5  
##  5  1985 55-74 years            18.8  
##  6  1985 75+ years              29.8  
##  7  1986 5-14 years              0.465
##  8  1986 15-24 years             9.07 
##  9  1986 25-34 years            12.3  
## 10  1986 35-54 years            14.8  
## # ... with 181 more rows
```
…
###Generation

Number of suicides per 100k for each generation.


```r
gen <- data %>%
  select("year":"suicides.100k.pop", "HDI.for.year":"generation") %>%
  group_by(year, generation) %>%
  summarize(suicides_per_100k = (sum(suicides_no)/sum(population))*100000)
gen
```

```
## # A tibble: 146 x 3
## # Groups:   year [32]
##     year generation      suicides_per_100k
##    <int> <fct>                       <dbl>
##  1  1985 G.I. Generation             21.1 
##  2  1985 Silent                      14.5 
##  3  1985 Boomers                     12.0 
##  4  1985 Generation X                 4.76
##  5  1986 G.I. Generation             21.4 
##  6  1986 Silent                      14.8 
##  7  1986 Boomers                     12.3 
##  8  1986 Generation X                 4.73
##  9  1987 G.I. Generation             21.6 
## 10  1987 Silent                      14.9 
## # ... with 136 more rows
```
…
```r
country_sex <- data %>%
  group_by(X...country, year, sex) %>%
  summarize(suicides_per_100k = (sum(suicides_no)/sum(population))*100000) %>%
  ungroup() %>%
  group_by(X...country, sex) %>%
  summarize(suicides_per_100k = sum(suicides_per_100k)/n()) %>%
  rename(country = X...country)
country_sex <- spread(country_sex, sex, suicides_per_100k)
filter(country_sex, male > female)
```

```
## # A tibble: 99 x 3
## # Groups:   country [101]
##    country              female  male
##    <fct>                 <dbl> <dbl>
##  1 Albania              2.19    4.10
##  2 Antigua and Barbuda  0.0772  1.06
##  3 Argentina            3.50   12.5 
##  4 Armenia              1.22    3.86
##  5 Aruba                2.53   14.2 
##  6 Australia            5.61   20.5 
##  7 Austria             10.5    31.7 
##  8 Azerbaijan           0.719   2.29
##  9 Bahamas              0.386   2.48
## 10 Bahrain              1.22    4.01
## # ... with 89 more rows
```
…
Country <- left_join(country, country_total_pop, by = "country")
```


```r
Country <- arrange(Country, desc(average_suicides_per_100k))
Country
```

```
## # A tibble: 101 x 3
##    country            average_suicides_per_100k average_population_1m
##    <fct>                                  <dbl>                 <dbl>
##  1 Lithuania                               40.7                  3.09
##  2 Russian Federation                      32.7                137.  
##  3 Sri Lanka                               30.8                 16.6 
##  4 Belarus                                 30.2                  9.40
##  5 Hungary                                 29.6                  9.56
##  6 Latvia                                  28.0                  2.14
##  7 Kazakhstan                              27.0                 14.5 
##  8 Slovenia                                26.4                  1.92
##  9 Estonia                                 25.7                  1.29
## 10 Ukraine                                 24.7                 45.9 
## # ... with 91 more rows
```
…
```
## # A tibble: 90 x 4
##    country             suicides_per_100k gdp_per_capita continent
##    <fct>                           <dbl>          <dbl> <chr>    
##  1 Albania                         2.12           2356  Europe   
##  2 Antigua and Barbuda             0             13679  Americas 
##  3 Argentina                       7.84           9744. Americas 
##  4 Armenia                         2.64           2605. Asia     
##  5 Australia                      12.6           49847. Oceania  
##  6 Austria                        19.7           39290. Europe   
##  7 Azerbaijan                      0.789           586. Asia     
##  8 Bahamas                         2.08          30700. Americas 
##  9 Bahrain                         2.38          21668. Asia     
## 10 Barbados                        2.48          13497. Americas 
## # ... with 80 more rows
```
…
```r
continent_eco_hdi <- country_eco %>%
  group_by(year, country) %>%
  na.omit(HDI.for.year) %>%
  summarise(pop = mean(population), suicides_per_100k = mean(suicides_per_100k), HDI = mean(HDI.for.year)) %>%
  ungroup() 
country_eco_hdi <- continent_eco_hdi %>%
  group_by(country) %>%
  summarise(suicides_per_100k = mean(suicides_per_100k), HDI= mean(HDI))
country_eco_hdi$continent <- countrycode(country_eco_hdi$country, "country.name", "continent")
country_eco_hdi
```

```
## # A tibble: 90 x 4
##    country             suicides_per_100k   HDI continent
##    <fct>                           <dbl> <dbl> <chr>    
##  1 Albania                         2.12  0.673 Europe   
##  2 Antigua and Barbuda             0     0.782 Americas 
##  3 Argentina                       7.84  0.780 Americas 
##  4 Armenia                         2.64  0.690 Asia     
##  5 Australia                      12.6   0.913 Oceania  
##  6 Austria                        19.7   0.848 Europe   
##  7 Azerbaijan                      0.789 0.624 Asia     
##  8 Bahamas                         2.08  0.780 Americas 
##  9 Bahrain                         2.38  0.805 Asia     
## 10 Barbados                        2.48  0.757 Americas 
## # ... with 80 more rows
```
…
